dump.vcd
$date
	Thu Sep 14 06:24:38 2023
$end
$version
	QuestaSim Version 2021.3
$end
$timescale
	1ns
$end

$scope module uvm_root $end
$upscope $end

$scope module tb $end
$var reg 1 ! clk $end
$var reg 1 " reset $end

$scope module dut $end
$var parameter 32 # ADDRESS $end
$var parameter 32 $ WIDTH $end
$var parameter 32 % DEPTH $end
$var wire 1 & clk $end
$var wire 1 ' reset $end
$var wire 1 ( wr $end
$var wire 1 ) rd $end
$var wire 1 * data_in [127] $end
$var wire 1 + data_in [126] $end
$var wire 1 , data_in [125] $end
$var wire 1 - data_in [124] $end
$var wire 1 . data_in [123] $end
$var wire 1 / data_in [122] $end
$var wire 1 0 data_in [121] $end
$var wire 1 1 data_in [120] $end
$var wire 1 2 data_in [119] $end
$var wire 1 3 data_in [118] $end
$var wire 1 4 data_in [117] $end
$var wire 1 5 data_in [116] $end
$var wire 1 6 data_in [115] $end
$var wire 1 7 data_in [114] $end
$var wire 1 8 data_in [113] $end
$var wire 1 9 data_in [112] $end
$var wire 1 : data_in [111] $end
$var wire 1 ; data_in [110] $end
$var wire 1 < data_in [109] $end
$var wire 1 = data_in [108] $end
$var wire 1 > data_in [107] $end
$var wire 1 ? data_in [106] $end
$var wire 1 @ data_in [105] $end
$var wire 1 A data_in [104] $end
$var wire 1 B data_in [103] $end
$var wire 1 C data_in [102] $end
$var wire 1 D data_in [101] $end
$var wire 1 E data_in [100] $end
$var wire 1 F data_in [99] $end
$var wire 1 G data_in [98] $end
$var wire 1 H data_in [97] $end
$var wire 1 I data_in [96] $end
$var wire 1 J data_in [95] $end
$var wire 1 K data_in [94] $end
$var wire 1 L data_in [93] $end
$var wire 1 M data_in [92] $end
$var wire 1 N data_in [91] $end
$var wire 1 O data_in [90] $end
$var wire 1 P data_in [89] $end
$var wire 1 Q data_in [88] $end
$var wire 1 R data_in [87] $end
$var wire 1 S data_in [86] $end
$var wire 1 T data_in [85] $end
$var wire 1 U data_in [84] $end
$var wire 1 V data_in [83] $end
$var wire 1 W data_in [82] $end
$var wire 1 X data_in [81] $end
$var wire 1 Y data_in [80] $end
$var wire 1 Z data_in [79] $end
$var wire 1 [ data_in [78] $end
$var wire 1 \ data_in [77] $end
$var wire 1 ] data_in [76] $end
$var wire 1 ^ data_in [75] $end
$var wire 1 _ data_in [74] $end
$var wire 1 ` data_in [73] $end
$var wire 1 a data_in [72] $end
$var wire 1 b data_in [71] $end
$var wire 1 c data_in [70] $end
$var wire 1 d data_in [69] $end
$var wire 1 e data_in [68] $end
$var wire 1 f data_in [67] $end
$var wire 1 g data_in [66] $end
$var wire 1 h data_in [65] $end
$var wire 1 i data_in [64] $end
$var wire 1 j data_in [63] $end
$var wire 1 k data_in [62] $end
$var wire 1 l data_in [61] $end
$var wire 1 m data_in [60] $end
$var wire 1 n data_in [59] $end
$var wire 1 o data_in [58] $end
$var wire 1 p data_in [57] $end
$var wire 1 q data_in [56] $end
$var wire 1 r data_in [55] $end
$var wire 1 s data_in [54] $end
$var wire 1 t data_in [53] $end
$var wire 1 u data_in [52] $end
$var wire 1 v data_in [51] $end
$var wire 1 w data_in [50] $end
$var wire 1 x data_in [49] $end
$var wire 1 y data_in [48] $end
$var wire 1 z data_in [47] $end
$var wire 1 { data_in [46] $end
$var wire 1 | data_in [45] $end
$var wire 1 } data_in [44] $end
$var wire 1 ~ data_in [43] $end
$var wire 1 !! data_in [42] $end
$var wire 1 "! data_in [41] $end
$var wire 1 #! data_in [40] $end
$var wire 1 $! data_in [39] $end
$var wire 1 %! data_in [38] $end
$var wire 1 &! data_in [37] $end
$var wire 1 '! data_in [36] $end
$var wire 1 (! data_in [35] $end
$var wire 1 )! data_in [34] $end
$var wire 1 *! data_in [33] $end
$var wire 1 +! data_in [32] $end
$var wire 1 ,! data_in [31] $end
$var wire 1 -! data_in [30] $end
$var wire 1 .! data_in [29] $end
$var wire 1 /! data_in [28] $end
$var wire 1 0! data_in [27] $end
$var wire 1 1! data_in [26] $end
$var wire 1 2! data_in [25] $end
$var wire 1 3! data_in [24] $end
$var wire 1 4! data_in [23] $end
$var wire 1 5! data_in [22] $end
$var wire 1 6! data_in [21] $end
$var wire 1 7! data_in [20] $end
$var wire 1 8! data_in [19] $end
$var wire 1 9! data_in [18] $end
$var wire 1 :! data_in [17] $end
$var wire 1 ;! data_in [16] $end
$var wire 1 <! data_in [15] $end
$var wire 1 =! data_in [14] $end
$var wire 1 >! data_in [13] $end
$var wire 1 ?! data_in [12] $end
$var wire 1 @! data_in [11] $end
$var wire 1 A! data_in [10] $end
$var wire 1 B! data_in [9] $end
$var wire 1 C! data_in [8] $end
$var wire 1 D! data_in [7] $end
$var wire 1 E! data_in [6] $end
$var wire 1 F! data_in [5] $end
$var wire 1 G! data_in [4] $end
$var wire 1 H! data_in [3] $end
$var wire 1 I! data_in [2] $end
$var wire 1 J! data_in [1] $end
$var wire 1 K! data_in [0] $end
$var reg 1 L! full $end
$var reg 1 M! empty $end
$var reg 128 N! data_out [127:0] $end
$var reg 10 O! wr_ptr [9:0] $end
$var reg 10 P! rd_ptr [9:0] $end
$var reg 10 Q! cur_ptr [9:0] $end
$upscope $end
$upscope $end

$scope begin uvm_pkg $end
$var parameter 32 R! UVM_HDL_MAX_WIDTH $end
$var parameter 32 S! UVM_STREAMBITS $end
$var parameter 32 T! UVM_RADIX $end
$var parameter 32 U! UVM_MACRO_NUMFLAGS $end
$var parameter 32 V! UVM_DEFAULT $end
$var parameter 32 W! UVM_ALL_ON $end
$var parameter 32 X! UVM_FLAGS_ON $end
$var parameter 32 Y! UVM_FLAGS_OFF $end
$var parameter 32 Z! UVM_COPY $end
$var parameter 32 [! UVM_NOCOPY $end
$var parameter 32 \! UVM_COMPARE $end
$var parameter 32 ]! UVM_NOCOMPARE $end
$var parameter 32 ^! UVM_PRINT $end
$var parameter 32 _! UVM_NOPRINT $end
$var parameter 32 `! UVM_RECORD $end
$var parameter 32 a! UVM_NORECORD $end
$var parameter 32 b! UVM_PACK $end
$var parameter 32 c! UVM_NOPACK $end
$var parameter 32 d! UVM_PHYSICAL $end
$var parameter 32 e! UVM_ABSTRACT $end
$var parameter 32 f! UVM_READONLY $end
$var parameter 32 g! UVM_NODEFPRINT $end
$var parameter 32 h! UVM_MACRO_EXTRAS $end
$var parameter 32 i! UVM_FLAGS $end
$var parameter 32 j! UVM_UNPACK $end
$var parameter 32 k! UVM_CHECK_FIELDS $end
$var parameter 32 l! UVM_END_DATA_EXTRA $end
$var parameter 32 m! UVM_START_FUNCS $end
$var parameter 32 n! UVM_SET $end
$var parameter 32 o! UVM_SETINT $end
$var parameter 32 p! UVM_SETOBJ $end
$var parameter 32 q! UVM_SETSTR $end
$var parameter 32 r! UVM_END_FUNCS $end
$var parameter 32 s! UVM_STR_CRC_POLYNOMIAL $end
$var parameter 32 t! UVM_STDOUT $end
$var parameter 32 u! UVM_LINE_WIDTH $end
$var parameter 32 v! UVM_NUM_LINES $end
$var parameter 32 w! UVM_SMALL_STRING $end
$var parameter 32 x! UVM_LARGE_STRING $end
$var reg 1 y! uvm_start_uvm_declarations $end
$var integer 32 z! uvm_global_random_seed $end
$var integer 32 {! UVM_UNBOUNDED_CONNECTIONS $end

$scope function uvm_hdl_check_path $end
$var integer 32 |! uvm_hdl_check_path $end
$upscope $end

$scope function uvm_hdl_deposit $end
$var integer 32 }! uvm_hdl_deposit $end
$var reg 1024 ~! value [1023:0] $end
$upscope $end

$scope function uvm_hdl_force $end
$var integer 32 !" uvm_hdl_force $end
$var reg 1024 "" value [1023:0] $end
$upscope $end

$scope task uvm_hdl_force_time $end
$var reg 1024 #" value [1023:0] $end
$var time 64 $" force_time $end
$upscope $end

$scope function uvm_hdl_release_and_read $end
$var integer 32 %" uvm_hdl_release_and_read $end
$var reg 1024 &" value [1023:0] $end
$upscope $end

$scope function uvm_hdl_release $end
$var integer 32 '" uvm_hdl_release $end
$upscope $end

$scope function uvm_hdl_read $end
$var integer 32 (" uvm_hdl_read $end
$var reg 1024 )" value [1023:0] $end
$upscope $end

$scope function uvm_dpi_get_next_arg_c $end
$var integer 32 *" init $end
$upscope $end

$scope function uvm_dpi_get_tool_name_c $end
$upscope $end

$scope function uvm_dpi_get_tool_version_c $end
$upscope $end

$scope function uvm_dpi_get_next_arg $end
$var integer 32 +" init $end
$upscope $end

$scope function uvm_dpi_get_tool_name $end
$upscope $end

$scope function uvm_dpi_get_tool_version $end
$upscope $end

$scope function uvm_dpi_regcomp $end
$upscope $end

$scope function uvm_dpi_regexec $end
$var integer 32 ," uvm_dpi_regexec $end
$upscope $end

$scope function uvm_dpi_regfree $end
$upscope $end

$scope function uvm_re_match $end
$var integer 32 -" uvm_re_match $end
$upscope $end

$scope function uvm_dump_re_cache $end
$upscope $end

$scope function uvm_glob_to_re $end
$upscope $end

$scope function uvm_revision_string $end
$upscope $end

$scope function uvm_radix_to_string $end
$var integer 32 ." radix $end
$upscope $end

$scope function uvm_instance_scope $end
$var reg 8 /" c [7:0] $end
$var integer 32 0" pos $end
$upscope $end

$scope function uvm_oneway_hash $end
$var integer 32 1" uvm_oneway_hash $end
$var integer 32 2" seed $end
$var reg 1 3" msb $end
$var reg 8 4" current_byte [7:0] $end
$var reg 32 5" crc1 [31:0] $end
$upscope $end

$scope function uvm_create_random_seed $end
$var integer 32 6" uvm_create_random_seed $end
$upscope $end

$scope function uvm_object_value_str $end
$upscope $end

$scope function uvm_leaf_scope $end
$var reg 8 7" scope_separator [7:0] $end
$var reg 8 8" bracket_match [7:0] $end
$var integer 32 9" pos $end
$var integer 32 :" bmatches $end
$upscope $end

$scope function uvm_bitstream_to_string $end
$var reg 4096 ;" value [4095:0] $end
$var integer 32 <" size $end
$var integer 32 =" radix $end
$upscope $end

$scope function uvm_integral_to_string $end
$var reg 64 >" value [63:0] $end
$var integer 32 ?" size $end
$var integer 32 @" radix $end
$upscope $end

$scope function uvm_vector_to_string $end
$var reg 4096 A" value [4095:0] $end
$var integer 32 B" size $end
$var integer 32 C" radix $end
$upscope $end

$scope function uvm_get_array_index_int $end
$var integer 32 D" uvm_get_array_index_int $end
$var reg 1 E" is_wildcard $end
$var integer 32 F" i $end
$upscope $end

$scope function uvm_get_array_index_string $end
$var reg 1 G" is_wildcard $end
$var integer 32 H" i $end
$upscope $end

$scope function uvm_is_array $end
$var reg 1 I" uvm_is_array $end
$upscope $end

$scope function uvm_has_wildcard $end
$upscope $end

$scope function m_uvm_string_queue_join $end
$upscope $end

$scope task run_test $end
$upscope $end

$scope function global_stop_request $end
$upscope $end

$scope function set_global_timeout $end
$var time 64 J" timeout $end
$var reg 1 K" overridable $end
$upscope $end

$scope function set_global_stop_timeout $end
$var time 64 L" timeout $end
$upscope $end

$scope function uvm_get_report_object $end
$upscope $end

$scope function uvm_report_enabled $end
$var integer 32 M" uvm_report_enabled $end
$var integer 32 N" verbosity $end
$var reg 2 O" severity [1:0] $end
$upscope $end

$scope function uvm_report $end
$var reg 2 P" severity [1:0] $end
$var integer 32 Q" verbosity $end
$var integer 32 R" line $end
$var reg 1 S" report_enabled_checked $end
$upscope $end

$scope function m__uvm_report_dpi $end
$var integer 32 T" severity $end
$var integer 32 U" verbosity $end
$var integer 32 V" line $end
$upscope $end

$scope function uvm_report_info $end
$var integer 32 W" verbosity $end
$var integer 32 X" line $end
$var reg 1 Y" report_enabled_checked $end
$upscope $end

$scope function uvm_report_warning $end
$var integer 32 Z" verbosity $end
$var integer 32 [" line $end
$var reg 1 \" report_enabled_checked $end
$upscope $end

$scope function uvm_report_error $end
$var integer 32 ]" verbosity $end
$var integer 32 ^" line $end
$var reg 1 _" report_enabled_checked $end
$upscope $end

$scope function uvm_report_fatal $end
$var integer 32 `" verbosity $end
$var integer 32 a" line $end
$var reg 1 b" report_enabled_checked $end
$upscope $end

$scope function uvm_process_report_message $end
$upscope $end

$scope function uvm_string_to_severity $end
$var reg 1 c" uvm_string_to_severity $end
$var reg 2 d" sev [1:0] $end
$upscope $end

$scope function uvm_string_to_action $end
$upscope $end

$scope function set_config_int $end
$var reg 4096 e" value [4095:0] $end
$upscope $end

$scope function set_config_object $end
$var reg 1 f" clone $end
$upscope $end

$scope function set_config_string $end
$upscope $end

$scope function uvm_is_match $end
$var reg 1 g" uvm_is_match $end
$upscope $end

$scope function uvm_string_to_bits $end
$var reg 115200 h" uvm_string_to_bits [115199:0] $end
$upscope $end

$scope function uvm_bits_to_string $end
$var reg 115200 i" str [115199:0] $end
$upscope $end

$scope task uvm_wait_for_nba_region $end
$var integer 32 j" nba $end
$var integer 32 k" next_nba $end
$upscope $end

$scope function uvm_split_string $end
$upscope $end

$scope function uvm_hdl_concat2string $end
$upscope $end
$upscope $end

$scope begin testbench_sv_unit $end
$upscope $end

$scope begin questa_uvm_pkg $end
$upscope $end

$scope begin std $end
$upscope $end
$enddefinitions $end
#0
$dumpvars
0E"
0G"
0I"
0c"
b0 d"
bx h"
bx i"
bx ~!
bx ""
bx #"
bx &"
bx )"
1y!
03"
b1110001 4"
b10000101000100010101111101011000 5"
bx ;"
bx >"
bx A"
0K"
b0 O"
b0 P"
0S"
1Y"
0\"
0_"
0b"
bx e"
0f"
0g"
1!
1"
0L!
xM!
b0 N!
b0 O!
b0 P!
bx Q!
b10000000000 R!
b1000000000000 S!
b1111000000000000000000000000 T!
b10001 U!
b10101010101 V!
b101010101 W!
b101010101 X!
b0 Y!
b1 Z!
b10 [!
b100 \!
b1000 ]!
b10000 ^!
b100000 _!
b1000000 `!
b10000000 a!
b100000000 b!
b1000000000 c!
b10000000000000 d!
b100000000000000 e!
b1000000000000000 f!
b10000000000000000 g!
b100000000000000000 h!
b100000000000000001 i!
b100000000000000010 j!
b100000000000000011 k!
b100000000000000100 l!
b100000000000000101 m!
b100000000000000110 n!
b100000000000000110 o!
b100000000000000111 p!
b100000000000001000 q!
b100000000000001000 r!
b100110000010001110110110110 s!
b1 t!
b1111000 u!
b1111000 v!
b1110111111 w!
b11100000111111111 x!
b1010 #
b10000000 $
b10000000000 %
b0 ."
b0 7"
b0 8"
b0 9"
b0 :"
b0 D"
b0 F"
b0 H"
b0 |!
b0 }!
b0 !"
b0 %"
b0 '"
b0 ("
b0 *"
b0 +"
b0 ,"
b0 -"
b10101111111110001010110000110 z!
b101110 /"
b111 0"
b10111101101000000000010000000000 1"
b10101111111110001010110000110 2"
b10101011100001101000011110010110 6"
b0 <"
b0 ="
b0 ?"
b0 @"
b0 B"
b0 C"
b0 M"
b111110100 N"
b0 Q"
b0 R"
b0 T"
b0 U"
b0 V"
b11001000 W"
b100010110 X"
b0 Z"
b0 ["
b0 ]"
b0 ^"
b0 `"
b0 a"
b100100 j"
b100100 k"
b11111111111111111111111111111111 {!
bx $"
bx J"
bx L"
0)
0(
0K!
0J!
0I!
0H!
0G!
0F!
0E!
0D!
0C!
0B!
0A!
0@!
0?!
0>!
0=!
0<!
0;!
0:!
09!
08!
07!
06!
05!
04!
03!
02!
01!
00!
0/!
0.!
0-!
0,!
0+!
0*!
0)!
0(!
0'!
0&!
0%!
0$!
0#!
0"!
0!!
0~
0}
0|
0{
0z
0y
0x
0w
0v
0u
0t
0s
0r
0q
0p
0o
0n
0m
0l
0k
0j
0i
0h
0g
0f
0e
0d
0c
0b
0a
0`
0_
0^
0]
0\
0[
0Z
0Y
0X
0W
0V
0U
0T
0S
0R
0Q
0P
0O
0N
0M
0L
0K
0J
0I
0H
0G
0F
0E
0D
0C
0B
0A
0@
0?
0>
0=
0<
0;
0:
09
08
07
06
05
04
03
02
01
00
0/
0.
0-
0,
0+
0*
1'
1&
$end
#5
0!
0"
0'
0&
#10
1!
1&
b0 Q!
1M!
#11
1(
1K!
1I!
1F!
1D!
1C!
1@!
1>!
1<!
1;!
1:!
17!
15!
14!
13!
12!
1,!
1(!
1'!
1&!
1!!
1|
1{
1y
1x
1w
1t
1r
1p
1m
1l
1i
1h
1g
1d
1a
1]
1\
1[
1Y
1V
1U
1S
1Q
1P
1N
1M
1I
1G
1D
1C
1B
1@
1>
1<
1;
19
18
12
11
10
1,
1+
#15
0!
0&
#20
1!
1&
b100101 k"
b10111101101000000000010000000001 6"
b1 O!
b100101 j"
#21
0(
#25
0!
0&
#30
1!
1&
b1 Q!
0M!
#31
1(
1H!
0C!
1B!
1A!
0@!
1?!
0>!
0<!
19!
18!
05!
04!
1-!
0,!
1)!
0(!
0'!
1%!
1"!
0!!
1~
1}
0|
0{
1z
0x
1v
0t
1s
0r
1n
0l
0i
0h
0g
1f
0d
1c
0a
0]
0\
0[
0Y
0V
0S
0Q
0P
0N
1L
1F
0D
1A
0>
1=
09
08
17
14
1.
0+
1*
#35
0!
0&
#40
1!
1&
b100110 k"
b10111101101000000000010000000011 6"
b10 O!
b100110 j"
#41
0(
#45
0!
0&
#50
1!
1&
b10 Q!
#51
1(
1J!
1G!
1E!
0?!
1<!
0;!
0:!
07!
02!
0-!
1,!
1+!
0)!
1(!
0%!
0~
0}
0y
1x
0w
0v
1u
1t
0s
1r
1o
0n
1l
1j
1h
1e
1b
1a
1`
1_
1\
1[
1Z
1X
0U
1R
1P
1O
1N
0M
1J
0I
0C
0B
1?
0=
1:
19
16
15
02
1/
0,
#55
0!
0&
#60
1!
1&
b100111 k"
b10111101101000000000010000000110 6"
b11 O!
b100111 j"
#61
0(
#65
0!
0&
#70
1!
1&
b11 Q!
#71
1(
0K!
0H!
0F!
1C!
0B!
1?!
1>!
1;!
08!
17!
15!
14!
03!
12!
11!
1/!
1.!
0+!
1)!
0(!
1%!
1$!
1#!
0"!
1!!
1}
1|
1{
1w
1v
0t
0r
0p
1n
0m
0l
1k
0j
1i
0h
0e
1d
0a
0`
1^
0[
0Z
1Y
0X
1W
1S
0P
0O
0N
1M
1K
1H
0G
1E
1C
0A
1=
0<
0;
0:
09
18
07
06
05
13
12
0.
1-
0*
#75
0!
0&
#80
1!
1&
b101000 k"
b10111101101000000000010000001010 6"
b100 O!
b101000 j"
#81
0(
#85
0!
0&
#90
1!
1&
b100 Q!
#91
1(
1K!
0G!
1F!
0C!
1@!
0?!
0;!
18!
16!
05!
04!
13!
10!
0/!
1+!
0)!
0&!
0$!
0#!
0!!
0|
0{
0z
1y
0x
0v
1s
0o
0n
1m
1h
0b
1a
1`
1]
0\
1[
1Z
0Y
0W
1V
1U
0S
0R
1P
1N
0M
0K
1I
0H
1G
0F
0@
1;
17
16
04
03
00
1.
0-
1*
#95
0!
0&
#100
1!
1&
b101001 k"
b10111101101000000000010000001111 6"
b101 O!
b101001 j"
#101
0(
#105
0!
0&
#110
1!
1&
b101 Q!
#111
1(
0K!
0J!
0I!
1H!
1G!
1B!
0A!
1?!
1=!
0<!
1:!
09!
06!
15!
14!
00!
1/!
1-!
0+!
1*!
1(!
1'!
0%!
1$!
1#!
1"!
1!!
1~
1|
0y
1v
1t
1q
1o
1j
0h
0f
0d
1b
0a
0]
0Z
1W
0V
1T
1R
1Q
1O
0N
0I
0G
0C
1B
1@
0?
1>
0;
1:
19
07
15
14
13
01
#115
0!
0&
#120
1!
1&
b101010 k"
b10111101101000000000010000010101 6"
b110 O!
b101010 j"
#121
0(
#125
0!
0&
#130
1!
1&
b110 Q!
#131
1(
1K!
1J!
0H!
0G!
0E!
0D!
1C!
1A!
0@!
0?!
0=!
1<!
1;!
0:!
19!
16!
04!
01!
10!
0-!
0*!
0(!
0'!
0$!
0"!
0~
0}
0|
1z
1x
0u
0t
0s
1p
0o
1l
0i
1h
1g
1e
0c
0`
0_
0^
1Z
1Y
0U
0R
0P
0O
1N
1I
1H
1G
0B
0>
1<
0:
17
05
03
02
11
1-
1,
1+
#135
0!
0&
#140
1!
1&
b101011 k"
b10111101101000000000010000011100 6"
b111 O!
b101011 j"
#141
0(
#145
0!
0&
#150
1!
1&
b111 Q!
#151
1(
0K!
0J!
1H!
1G!
1D!
0C!
0B!
1=!
09!
08!
07!
06!
14!
03!
11!
0/!
0.!
0,!
1*!
1(!
1&!
1%!
1"!
1}
1y
1t
1s
1r
1o
1n
0m
0l
0h
0e
1c
1a
1`
1]
1\
0Y
0W
1U
0T
1S
1P
0N
1M
0L
0J
0I
0H
0G
1F
1C
1B
1?
1>
0<
1:
07
12
10
0.
0,
0+
#155
0!
0&
#160
1!
1&
b101100 k"
b10111101101000000000010000100100 6"
b1000 O!
b101100 j"
#161
0(
#165
0!
0&
#170
1!
1&
b1000 Q!
#171
1(
1J!
1I!
0H!
0F!
1E!
0D!
1B!
0A!
1?!
0<!
16!
05!
04!
13!
01!
1.!
1,!
1+!
0*!
1)!
0(!
0%!
1$!
0y
0v
1u
0s
0r
0q
0p
0o
1m
0j
1f
0c
0`
1^
0]
0\
0[
0Z
0U
1T
0S
0Q
0P
1O
0M
1K
1H
1G
1D
1A
0@
0=
09
06
15
13
01
00
0/
1.
0-
1,
#175
0!
0&
#180
1!
1&
b101101 k"
b10111101101000000000010000101101 6"
b1001 O!
b101101 j"
#181
0(
#185
0!
0&
#190
1!
1&
b1001 Q!
#191
1(
0G!
1F!
1D!
1C!
0B!
1@!
0?!
0>!
0=!
1:!
19!
18!
03!
11!
0.!
1-!
0,!
1*!
1(!
0&!
0$!
0"!
0}
1|
0z
0x
0w
0u
0t
1s
1q
0m
1l
1j
1i
1e
1d
1c
0b
1`
0^
1]
1Y
1W
1V
1R
1P
1N
1M
1J
0H
0E
0B
0>
1=
1<
1;
0:
08
17
16
05
10
1/
1-
#195
0!
0&
#200
1!
1&
b101110 k"
b10111101101000000000010000110111 6"
b1010 O!
b101110 j"
#201
0(
#205
0!
0&
#210
1!
1&
b1010 Q!
#211
1)
#215
0!
0&
#220
1!
1&
b101111 k"
b10111101101000000000010001000010 6"
b1100011100000110110101011100101000110110101100101110001001001110011001010100111011001000011100010000011110100111010100110100101 N!
b1 P!
b101111 j"
#221
0)
#225
0!
0&
#230
1!
1&
b1001 Q!
#231
1)
#235
0!
0&
#240
1!
1&
b110000 k"
b10111101101000000000010001001110 6"
b10101011101001000111001111001101001100000001000000000000010010000001101001001101100110100110010001000011000111110001011010101101 N!
b10 P!
b110000 j"
#241
0)
#245
0!
0&
#250
1!
1&
b1000 Q!
#251
1)
#255
0!
0&
#260
1!
1&
b110001 k"
b10111101101000000000010001011011 6"
b10001111001111011110011100001100101011101000001011100111110110101011011010110010100000100010100110000001000011001000011011111111 N!
b11 P!
b110001 j"
#261
0)
#265
0!
0&
#270
1!
1&
b111 Q!
#271
1)
#275
0!
0&
#280
1!
1&
b110010 k"
b10111101101000000000010001101001 6"
b10111111000100001011001011010111100001100010100101100111010010100110000011110111101011110010010110110110101011011010111010110 N!
b100 P!
b110010 j"
#281
0)
#285
0!
0&
#290
1!
1&
b110 Q!
#291
1)
#295
0!
0&
#300
1!
1&
b110011 k"
b10111101101000000000010001111000 6"
b10001101100011100101010001010101101010100001100011011111011010110101000001010101000100000100000110101111001111001010110011100111 N!
b101 P!
b110011 j"
#301
0)
#305
0!
0&
#310
1!
1&
b101 Q!
#311
1)
#315
0!
0&
#320
1!
1&
b110100 k"
b10111101101000000000010010001000 6"
b10001100111110111001101010010000101001111011010001001110110000011101010101111100001111111001101011110111110110100111101011111000 N!
b110 P!
b110100 j"
#321
0)
#325
0!
0&
#330
1!
1&
b100 Q!
#331
1)
#335
0!
0&
#340
1!
1&
b110101 k"
b10111101101000000000010010011001 6"
b11111101001011110011001000010111101010010010010111000000100101101111001100001110100001010000000010111011011111011010011100100011 N!
b111 P!
b110101 j"
#341
0)
#345
0!
0&
#350
1!
1&
b11 Q!
#351
1)
#355
0!
0&
#360
1!
1&
b110110 k"
b10111101101000000000010010101011 6"
b10010111101010111001111011011000000100110101000011110011110001001100111111101111100101110110101000001110110000011110010010111000 N!
b1000 P!
b110110 j"
#361
0)
#365
0!
0&
#370
1!
1&
b10 Q!
#371
1)
#375
0!
0&
#380
1!
1&
b110111 k"
b10111101101000000000010010111110 6"
b10101000111100101000110111111110010001000010000000001001100011000101100000110110100101111010010110101011001000010111001001010110 N!
b1001 P!
b110111 j"
#381
0)
#385
0!
0&
#390
1!
1&
b1 Q!
#391
1)
#395
0!
0&
#400
1!
1&
b111000 k"
b10111101101000000000010011010010 6"
b10111110111011000111010101101100110111101010110100010011011111011110100101000000001001010000111101001110001011110000100111100110 N!
b1010 P!
b111000 j"
#401
0)
#405
0!
0&
#410
1!
1&
b0 Q!
1M!
#411
1(
1G!
0E!
0D!
1B!
1A!
1=!
09!
08!
17!
06!
02!
01!
00!
1'!
1%!
1$!
0#!
1"!
0!!
1}
0|
1y
1x
1w
1u
1t
0s
0n
1m
0l
0k
0j
1h
0f
0c
1b
1_
1^
1\
0Y
0W
1S
1Q
0N
0M
0K
1I
0G
0C
1B
0A
1@
0=
0;
19
18
06
15
04
03
02
00
0/
0.
0-
0,
1+
#415
0!
0&
#420
1!
1&
b111001 k"
b10111101101000000000010011100111 6"
b1011 O!
b111001 j"
#421
0(
#425
0!
0&
#430
1!
1&
b1 Q!
0M!
#431
1)
#435
0!
0&
#440
1!
1&
b111010 k"
b10111101101000000000010011111101 6"
b11000000000101110010011010101001100001111110100000111111101101110001000100110111000100101101111101000000000100110100111100110110 N!
b1011 P!
b111010 j"
#441
0)
#445
0!
0&
#450
1!
1&
b0 Q!
1M!
#451
1(
1K!
0J!
0I!
1H!
0C!
0B!
0@!
0:!
16!
15!
14!
13!
12!
1.!
0)!
0(!
0'!
1&!
0%!
1#!
0"!
0}
1z
0y
0x
0w
1v
0t
1r
0q
1n
0h
0g
0e
0d
1c
0b
0_
0\
1Z
1Y
1X
1W
0S
0R
0Q
0P
0O
1N
1L
0I
1H
1G
1E
0D
1C
0B
1A
0?
1=
0<
1;
1:
09
08
07
16
13
12
10
1/
1,
0*
#455
0!
0&
#460
1!
1&
b111011 k"
b10111101101000000000010100010100 6"
b1100 O!
b111011 j"
#461
0(
#465
0!
0&
#470
1!
1&
b1 Q!
0M!
#471
1)
#475
0!
0&
#480
1!
1&
b111100 k"
b10111101101000000000010100101100 6"
b1100110110110001101001101011110101010000010111110011011010000010001100010011000100000011010001101100011111100010100010000111001 N!
b1100 P!
b111100 j"
#481
0)
#485
0!
0&
#490
1!
1&
b0 Q!
1M!
#491
1(
0K!
1J!
1C!
0A!
1@!
1>!
0=!
19!
07!
04!
02!
1/!
0-!
1,!
0+!
1)!
1'!
0$!
1"!
1!!
1|
1y
1x
1t
1s
0r
1o
0n
0m
1l
1k
1h
1f
1d
0c
1b
1_
0^
0]
1\
0Y
0X
0W
1S
1Q
1M
1K
0J
1I
0H
0G
0F
1D
1B
1?
0=
1<
0;
0:
17
05
03
00
1.
0,
#495
0!
0&
#500
1!
1&
b111101 k"
b10111101101000000000010101000101 6"
b1101 O!
b111101 j"
#501
0(
#505
0!
0&
#510
1!
1&
b1 Q!
0M!
#511
1)
#515
0!
0&
#520
1!
1&
b111110 k"
b10111101101000000000010101011111 6"
b1001100100011000010011111110001011110010110100010100111101010110110010001111011101001110011011010110001011001010010100100111010 N!
b1101 P!
b111110 j"
#521
0)
#525
0!
0&
#530
1!
1&
b0 Q!
1M!
#531
1(
0H!
0G!
0F!
1E!
1D!
0@!
0;!
1:!
05!
11!
0/!
0.!
0,!
1+!
0&!
1%!
1$!
0#!
0y
0x
0v
0t
0s
1q
1p
1m
0k
0i
0b
1]
1[
0Z
1Y
1X
0V
0T
0S
0N
0M
0I
0E
0D
0C
0B
0A
0@
0?
1>
1=
0<
1;
1:
19
06
15
14
13
10
0/
1,
1*
#535
0!
0&
#540
1!
1&
b111111 k"
b10111101101000000000010101111010 6"
b1110 O!
b111111 j"
#541
0(
#545
0!
0&
#550
1!
1&
b1 Q!
0M!
#551
1)
#555
0!
0&
#560
1!
1&
b1000000 k"
b10111101101000000000010110010110 6"
b11101010111101011101100000000000011000010000001101110111001010100011011100010000101001101101011100000101001001100010000111000010 N!
b1110 P!
b1000000 j"
#561
0)
#565
0!
0&
#570
1!
1&
b0 Q!
1M!
#571
1(
1I!
1H!
1G!
1F!
0E!
0C!
1B!
1A!
1@!
0>!
1=!
1;!
09!
17!
06!
15!
14!
12!
10!
1.!
1-!
0+!
0)!
1(!
0%!
0$!
1#!
0!!
0|
0z
1y
1x
1w
0u
1t
1s
1r
0q
1n
1k
1j
1i
1e
1b
0`
1^
0X
1T
1O
1N
0K
1J
1I
1G
1E
1D
1B
1A
1?
09
03
02
11
00
1/
1-
0,
0+
0*
#575
0!
0&
#580
1!
1&
b1000001 k"
b10111101101000000000010110110011 6"
b1111 O!
b1000001 j"
#581
0(
#585
0!
0&
#590
1!
1&
b1 Q!
0M!
#591
1)
#595
0!
0&
#600
1!
1&
b1000010 k"
b10111101101000000000010111010001 6"
b11101001101001101110110110101101011010010000101111101101110111111111011100111000000110001101001101111110100110100111010111110 N!
b1111 P!
b1000010 j"
#601
0)
#605
0!
0&
#610
1!
1&
b0 Q!
1M!
#611
1(
1K!
0F!
0D!
0B!
0;!
18!
07!
16!
02!
01!
1/!
1,!
1)!
0'!
1%!
0"!
1}
0y
0w
0t
0s
0o
0n
0m
0l
0j
0i
0h
0f
0e
0d
0_
0\
0Y
1X
1P
0O
0N
1K
0I
0G
1F
1@
0=
1<
0;
0:
16
04
13
12
01
10
0/
0.
0-
1*
#615
0!
0&
#620
1!
1&
b1000011 k"
b10111101101000000000010111110000 6"
b10000 O!
b1000011 j"
#621
0(
#625
0!
0&
#630
1!
1&
b1 Q!
0M!
#631
1)
#635
0!
0&
#640
1!
1&
b1000100 k"
b10111101101000000000011000010000 6"
b10000010110111000010111110111000111000110010001001011001100000000100001010000010000100010100111011111001111010100100110000011111 N!
b10000 P!
b1000100 j"
#641
0)
#645
0!
0&
#650
1!
1&
b0 Q!
1M!
